{
  "currentWeekIndex": 3,
  "weekdays": [],
  "weeks": [
    {
      "WeekType": null,
      "DateBegin": "2018-05-07T00:00:00",
      "DateEnd": JSON.parse(
      "\"2018-05-13T00:00:00\""
      ),
      "Number": 1
    },
    {
      "WeekType": null,
      "DateBegin": JSON.parse(
      "\"2018-05-14T00:00:00\""
      ),
      "DateEnd": JSON.parse(
      "\"2018-05-20T00:00:00\""
      ),
      "Number": 2
    },
    {
      "WeekType": null,
      "DateBegin": JSON.parse(
      "\"2018-05-21T00:00:00\""
      ),
      "DateEnd": JSON.parse(
      "\"2018-05-27T00:00:00\""
      ),
      "Number": 1
    },
    {
      "WeekType": null,
      "DateBegin": JSON.parse(
      "\"2018-05-28T00:00:00\""
      ),
      "DateEnd": JSON.parse(
      "\"2018-06-03T00:00:00\""
      ),
      "Number": 2
    },
    {
      "WeekType": null,
      "DateBegin": JSON.parse(
      "\"2018-06-04T00:00:00\""
      ),
      "DateEnd": JSON.parse(
      "\"2018-06-10T00:00:00\""
      ),
      "Number": 1
    },
    {
      "WeekType": null,
      "DateBegin": JSON.parse(
      "\"2018-06-11T00:00:00\""
      ),
      "DateEnd": JSON.parse(
      "\"2018-06-17T00:00:00\""
      ),
      "Number": 2
    },
    {
      "WeekType": null,
      "DateBegin": JSON.parse(
      "\"2018-06-18T00:00:00\""
      ),
      "DateEnd": JSON.parse(
      "\"2018-06-24T00:00:00\""
      ),
      "Number": 1
    },
    {
      "WeekType": null,
      "DateBegin": JSON.parse(
      "\"2018-06-25T00:00:00\""
      ),
      "DateEnd": JSON.parse(
      "\"2018-07-01T00:00:00\""
      ),
      "Number": 2
    }
  ],
  "Model": {
    "ForLabel": "",
    "Name": "",
    "Id": 621992,
    "WeekDoubled": true,
    "ScheduleExist": true,
    "PersonalSchedule": true,
    "Title": "Ваше расписание занятий ",
    "PageTitle": "Расписание занятий",
    "Type": 4
  }
}


{
  "weeks": [
    {
      "WeekType": null,
      "DateBegin": JSON.parse(
      "\"2018-06-04T00:00:00\""
      ),
      "DateEnd": JSON.parse(
      "\"2018-06-10T00:00:00\""
      ),
      "Number": 1
    },
    {
      "WeekType": null,
      "DateBegin": JSON.parse(
      "\"2018-06-11T00:00:00\""
      ),
      "DateEnd": JSON.parse(
      "\"2018-06-17T00:00:00\""
      ),
      "Number": 2
    },
    {
      "WeekType": null,
      "DateBegin": JSON.parse(
      "\"2018-06-18T00:00:00\""
      ),
      "DateEnd": JSON.parse(
      "\"2018-06-24T00:00:00\""
      ),
      "Number": 1
    },
    {
      "WeekType": null,
      "DateBegin": JSON.parse(
      "\"2018-06-25T00:00:00\""
      ),
      "DateEnd": JSON.parse(
      "\"2018-07-01T00:00:00\""
      ),
      "Number": 2
    }
  ]
}
